{"failedCount":0,"prefixedPath":"src\/test\/java\/users\/get\/user-get.feature","packageQualifiedName":"src.test.java.users.get.user-get","loopIndex":-1,"relativePath":"src\/test\/java\/users\/get\/user-get.feature","scenarioResults":[{"sectionIndex":2,"stepResults":[{"result":{"nanos":246602400,"millis":246.6024,"status":"passed"},"step":{"line":14,"prefix":"*","index":0,"text":"def jsonResponse = read(\"..\/json\/list-of-users.json\")"}},{"result":{"nanos":1301000,"millis":1.301,"status":"passed"},"step":{"line":15,"prefix":"Given","index":1,"text":"url 'https:\/\/reqres.in\/api\/users?page=2'"}},{"result":{"nanos":1386347500,"millis":1386.3475,"status":"passed"},"step":{"line":16,"prefix":"When","index":2,"text":"method get"},"stepLog":"18:50:00.293 request:\n1 > GET https:\/\/reqres.in\/api\/users?page=2\n1 > Host: reqres.in\n1 > Connection: Keep-Alive\n1 > User-Agent: Apache-HttpClient\/4.5.13 (Java\/11.0.12)\n1 > Accept-Encoding: gzip,deflate\n\n\n18:50:00.974 response time in milliseconds: 670\n1 < 200\n1 < Date: Thu, 16 Feb 2023 23:50:01 GMT\n1 < Content-Type: application\/json; charset=utf-8\n1 < Transfer-Encoding: chunked\n1 < Connection: keep-alive\n1 < X-Powered-By: Express\n1 < Access-Control-Allow-Origin: *\n1 < Etag: W\/\"406-ut0vzoCuidvyMf8arZpMpJ6ZRDw\"\n1 < Via: 1.1 vegur\n1 < Cache-Control: max-age=14400\n1 < CF-Cache-Status: HIT\n1 < Age: 602\n1 < Report-To: {\"endpoints\":[{\"url\":\"https:\\\/\\\/a.nel.cloudflare.com\\\/report\\\/v3?s=uyyhM0JuckEsLhN2YwJ7N8ePg7n%2F1o%2Ber7bphX%2FaCK4WohQGcOE8BOqwr7Nn8ZNoqjR0fNLHhqL5PZT1eU1RYSsYF3xacmMwuFGyc9KfMNAkHMepj7Cfm0epgA%3D%3D\"}],\"group\":\"cf-nel\",\"max_age\":604800}\n1 < NEL: {\"success_fraction\":0,\"report_to\":\"cf-nel\",\"max_age\":604800}\n1 < Vary: Accept-Encoding\n1 < Server: cloudflare\n1 < CF-RAY: 79aa2ee3fce99af7-GYE\n{\"page\":2,\"per_page\":6,\"total\":12,\"total_pages\":2,\"data\":[{\"id\":7,\"email\":\"michael.lawson@reqres.in\",\"first_name\":\"Michael\",\"last_name\":\"Lawson\",\"avatar\":\"https:\/\/reqres.in\/img\/faces\/7-image.jpg\"},{\"id\":8,\"email\":\"lindsay.ferguson@reqres.in\",\"first_name\":\"Lindsay\",\"last_name\":\"Ferguson\",\"avatar\":\"https:\/\/reqres.in\/img\/faces\/8-image.jpg\"},{\"id\":9,\"email\":\"tobias.funke@reqres.in\",\"first_name\":\"Tobias\",\"last_name\":\"Funke\",\"avatar\":\"https:\/\/reqres.in\/img\/faces\/9-image.jpg\"},{\"id\":10,\"email\":\"byron.fields@reqres.in\",\"first_name\":\"Byron\",\"last_name\":\"Fields\",\"avatar\":\"https:\/\/reqres.in\/img\/faces\/10-image.jpg\"},{\"id\":11,\"email\":\"george.edwards@reqres.in\",\"first_name\":\"George\",\"last_name\":\"Edwards\",\"avatar\":\"https:\/\/reqres.in\/img\/faces\/11-image.jpg\"},{\"id\":12,\"email\":\"rachel.howell@reqres.in\",\"first_name\":\"Rachel\",\"last_name\":\"Howell\",\"avatar\":\"https:\/\/reqres.in\/img\/faces\/12-image.jpg\"}],\"support\":{\"url\":\"https:\/\/reqres.in\/#support-heading\",\"text\":\"To keep ReqRes free, contributions towards server costs are appreciated!\"}}\n\n"},{"result":{"nanos":50800,"millis":0.0508,"status":"passed"},"step":{"line":17,"prefix":"Then","index":3,"text":"status 200"}},{"result":{"nanos":35279300,"millis":35.2793,"status":"passed"},"step":{"line":18,"prefix":"And","index":4,"text":"match $ == jsonResponse"}}],"executorName":"main","line":13,"name":"Get a user list with json","description":"","durationMillis":1669.581,"startTime":1676591399328,"failed":false,"refId":"[3:13]","endTime":1676591401013,"exampleIndex":-1}],"callDepth":0,"name":"Get user on reqres","description":"","resultDate":"2023-02-16 06:50:01 p. m.","durationMillis":1669.581,"passedCount":1}