{"failedCount":1,"prefixedPath":"src\/test\/java\/users\/get\/user-get.feature","packageQualifiedName":"src.test.java.users.get.user-get","loopIndex":-1,"relativePath":"src\/test\/java\/users\/get\/user-get.feature","scenarioResults":[{"sectionIndex":2,"stepResults":[{"result":{"nanos":257570500,"millis":257.5705,"status":"passed"},"step":{"line":14,"prefix":"*","index":0,"text":"def jsonResponse = read(\"..\/json\/list-of-users.json\")"}},{"result":{"nanos":1133900,"millis":1.1339,"status":"passed"},"step":{"line":15,"prefix":"Given","index":1,"text":"url 'https:\/\/reqres.in\/api\/users?page=2'"}},{"result":{"nanos":1239809000,"millis":1239.809,"status":"passed"},"step":{"line":16,"prefix":"When","index":2,"text":"method get"},"stepLog":"18:56:18.941 request:\n1 > GET https:\/\/reqres.in\/api\/users?page=2\n1 > Host: reqres.in\n1 > Connection: Keep-Alive\n1 > User-Agent: Apache-HttpClient\/4.5.13 (Java\/11.0.12)\n1 > Accept-Encoding: gzip,deflate\n\n\n18:56:19.495 response time in milliseconds: 554\n1 < 200\n1 < Date: Thu, 16 Feb 2023 23:56:20 GMT\n1 < Content-Type: application\/json; charset=utf-8\n1 < Transfer-Encoding: chunked\n1 < Connection: keep-alive\n1 < X-Powered-By: Express\n1 < Access-Control-Allow-Origin: *\n1 < Etag: W\/\"406-ut0vzoCuidvyMf8arZpMpJ6ZRDw\"\n1 < Via: 1.1 vegur\n1 < Cache-Control: max-age=14400\n1 < CF-Cache-Status: HIT\n1 < Age: 981\n1 < Report-To: {\"endpoints\":[{\"url\":\"https:\\\/\\\/a.nel.cloudflare.com\\\/report\\\/v3?s=s5b%2FFKK0sw89%2Bl7GmuNmGBRVaZKmPn%2Fb0gBzm1W%2FsC%2BWrKqf2DHJqNF19LsJ4oYx6PIE8h9FfJi32AkktCP20jsMKJI3WkQz4YuQtZubNy0xZfiiFE4QDnCdDw%3D%3D\"}],\"group\":\"cf-nel\",\"max_age\":604800}\n1 < NEL: {\"success_fraction\":0,\"report_to\":\"cf-nel\",\"max_age\":604800}\n1 < Vary: Accept-Encoding\n1 < Server: cloudflare\n1 < CF-RAY: 79aa382189109afe-GYE\n{\"page\":2,\"per_page\":6,\"total\":12,\"total_pages\":2,\"data\":[{\"id\":7,\"email\":\"michael.lawson@reqres.in\",\"first_name\":\"Michael\",\"last_name\":\"Lawson\",\"avatar\":\"https:\/\/reqres.in\/img\/faces\/7-image.jpg\"},{\"id\":8,\"email\":\"lindsay.ferguson@reqres.in\",\"first_name\":\"Lindsay\",\"last_name\":\"Ferguson\",\"avatar\":\"https:\/\/reqres.in\/img\/faces\/8-image.jpg\"},{\"id\":9,\"email\":\"tobias.funke@reqres.in\",\"first_name\":\"Tobias\",\"last_name\":\"Funke\",\"avatar\":\"https:\/\/reqres.in\/img\/faces\/9-image.jpg\"},{\"id\":10,\"email\":\"byron.fields@reqres.in\",\"first_name\":\"Byron\",\"last_name\":\"Fields\",\"avatar\":\"https:\/\/reqres.in\/img\/faces\/10-image.jpg\"},{\"id\":11,\"email\":\"george.edwards@reqres.in\",\"first_name\":\"George\",\"last_name\":\"Edwards\",\"avatar\":\"https:\/\/reqres.in\/img\/faces\/11-image.jpg\"},{\"id\":12,\"email\":\"rachel.howell@reqres.in\",\"first_name\":\"Rachel\",\"last_name\":\"Howell\",\"avatar\":\"https:\/\/reqres.in\/img\/faces\/12-image.jpg\"}],\"support\":{\"url\":\"https:\/\/reqres.in\/#support-heading\",\"text\":\"To keep ReqRes free, contributions towards server costs are appreciated!\"}}\n\n"},{"result":{"nanos":41000,"millis":0.041,"status":"passed"},"step":{"line":17,"prefix":"Then","index":3,"text":"status 200"}},{"result":{"nanos":22190200,"millis":22.1902,"status":"passed"},"step":{"line":18,"prefix":"And","index":4,"text":"match $ == jsonResponse"}},{"result":{"nanos":15135200,"errorMessage":"js failed:\n>>>>\n01: read(\"..\/json\/list-of-users.jso\")\n<<<<\norg.graalvm.polyglot.PolyglotException: java.io.FileNotFoundException: C:\\Users\\Jaime\\Documents\\Portafolio\\Proyectos Karate JA\\src\\test\\java\\users\\get\\..\\json\\list-of-users.jso (El sistema no puede encontrar el archivo especificado)\n- com.intuit.karate.resource.FileResource.getStream(FileResource.java:98)\n- com.intuit.karate.core.ScenarioFileReader.readFileAsStream(ScenarioFileReader.java:99)\n- com.intuit.karate.core.ScenarioFileReader.readFile(ScenarioFileReader.java:76)\n- com.intuit.karate.core.ScenarioEngine.lambda$new$0(ScenarioEngine.java:120)\n- <js>.:program(Unnamed:1)\n\nsrc\/test\/java\/users\/get\/user-get.feature:20","millis":15.1352,"status":"failed"},"step":{"comments":["# comparo leyendo directamente el json"],"line":20,"prefix":"And","index":5,"text":"match $ == read(\"..\/json\/list-of-users.jso\")"},"stepLog":"18:56:19.545 src\/test\/java\/users\/get\/user-get.feature:20\nAnd match $ == read(\"..\/json\/list-of-users.jso\")\njs failed:\n>>>>\n01: read(\"..\/json\/list-of-users.jso\")\n<<<<\norg.graalvm.polyglot.PolyglotException: java.io.FileNotFoundException: C:\\Users\\Jaime\\Documents\\Portafolio\\Proyectos Karate JA\\src\\test\\java\\users\\get\\..\\json\\list-of-users.jso (El sistema no puede encontrar el archivo especificado)\n- com.intuit.karate.resource.FileResource.getStream(FileResource.java:98)\n- com.intuit.karate.core.ScenarioFileReader.readFileAsStream(ScenarioFileReader.java:99)\n- com.intuit.karate.core.ScenarioFileReader.readFile(ScenarioFileReader.java:76)\n- com.intuit.karate.core.ScenarioEngine.lambda$new$0(ScenarioEngine.java:120)\n- <js>.:program(Unnamed:1)\n\nsrc\/test\/java\/users\/get\/user-get.feature:20\n"}],"line":13,"description":"","durationMillis":1535.8798,"failed":true,"error":"js failed:\n>>>>\n01: read(\"..\/json\/list-of-users.jso\")\n<<<<\norg.graalvm.polyglot.PolyglotException: java.io.FileNotFoundException: C:\\Users\\Jaime\\Documents\\Portafolio\\Proyectos Karate JA\\src\\test\\java\\users\\get\\..\\json\\list-of-users.jso (El sistema no puede encontrar el archivo especificado)\n- com.intuit.karate.resource.FileResource.getStream(FileResource.java:98)\n- com.intuit.karate.core.ScenarioFileReader.readFileAsStream(ScenarioFileReader.java:99)\n- com.intuit.karate.core.ScenarioFileReader.readFile(ScenarioFileReader.java:76)\n- com.intuit.karate.core.ScenarioEngine.lambda$new$0(ScenarioEngine.java:120)\n- <js>.:program(Unnamed:1)\n\nsrc\/test\/java\/users\/get\/user-get.feature:20","executorName":"main","name":"Get a user list with json","startTime":1676591777991,"refId":"[3:13]","endTime":1676591779545,"exampleIndex":-1}],"callDepth":0,"name":"Get user on reqres","description":"","resultDate":"2023-02-16 06:56:19 p. m.","durationMillis":1535.8798,"passedCount":0}